<mxfile host="app.diagrams.net" modified="2021-12-30T19:28:53.595Z" agent="5.0 (X11)" etag="OO_B2elbFKbVB9h20c1S" version="16.0.0" type="gitlab">
  <diagram id="xYfPKcAti6vwV03rwQjt" name="Page-1">
    <mxGraphModel dx="1422" dy="1564" grid="1" gridSize="10" guides="1" tooltips="1" connect="1" arrows="1" fold="1" page="1" pageScale="1" pageWidth="1169" pageHeight="827" math="0" shadow="0">
      <root>
        <mxCell id="0" />
        <mxCell id="1" parent="0" />
        <mxCell id="ABHz71erlMAeGAPcpA3J-29" value="" style="group" parent="1" vertex="1" connectable="0">
          <mxGeometry x="430" y="240" width="440" height="250" as="geometry" />
        </mxCell>
        <mxCell id="ABHz71erlMAeGAPcpA3J-16" value="" style="rounded=0;whiteSpace=wrap;html=1;fontSize=18;strokeWidth=2;fillColor=#f5f5f5;fontColor=#333333;strokeColor=#666666;" parent="ABHz71erlMAeGAPcpA3J-29" vertex="1">
          <mxGeometry width="400" height="250" as="geometry" />
        </mxCell>
        <mxCell id="ABHz71erlMAeGAPcpA3J-18" value="&lt;div&gt;Sample&lt;/div&gt;&lt;div&gt;time&lt;br&gt;&lt;/div&gt;" style="rounded=0;whiteSpace=wrap;html=1;fontSize=18;strokeWidth=2;" parent="ABHz71erlMAeGAPcpA3J-29" vertex="1">
          <mxGeometry x="35" y="150" width="120" height="60" as="geometry" />
        </mxCell>
        <mxCell id="ABHz71erlMAeGAPcpA3J-19" value="&lt;div&gt;Sample&lt;/div&gt;&lt;div&gt;value&lt;br&gt;&lt;/div&gt;" style="rounded=0;whiteSpace=wrap;html=1;fontSize=18;strokeWidth=2;" parent="ABHz71erlMAeGAPcpA3J-29" vertex="1">
          <mxGeometry x="155" y="150" width="120" height="60" as="geometry" />
        </mxCell>
        <mxCell id="ABHz71erlMAeGAPcpA3J-20" value="FIFO" style="whiteSpace=wrap;html=1;aspect=fixed;fontSize=18;strokeWidth=2;" parent="ABHz71erlMAeGAPcpA3J-29" vertex="1">
          <mxGeometry x="360" y="140" width="80" height="80" as="geometry" />
        </mxCell>
        <mxCell id="ABHz71erlMAeGAPcpA3J-21" value="Input RX" style="rounded=0;whiteSpace=wrap;html=1;fontSize=18;strokeWidth=2;" parent="ABHz71erlMAeGAPcpA3J-29" vertex="1">
          <mxGeometry x="155" y="40" width="120" height="60" as="geometry" />
        </mxCell>
        <mxCell id="ABHz71erlMAeGAPcpA3J-22" value="" style="endArrow=classic;html=1;rounded=0;fontSize=18;strokeWidth=2;entryX=0.442;entryY=0.033;entryDx=0;entryDy=0;entryPerimeter=0;" parent="ABHz71erlMAeGAPcpA3J-29" target="ABHz71erlMAeGAPcpA3J-19" edge="1">
          <mxGeometry width="50" height="50" relative="1" as="geometry">
            <mxPoint x="208" y="100" as="sourcePoint" />
            <mxPoint x="180" y="300" as="targetPoint" />
          </mxGeometry>
        </mxCell>
        <mxCell id="ABHz71erlMAeGAPcpA3J-23" value="" style="endArrow=classic;html=1;rounded=1;fontSize=18;strokeWidth=2;entryX=0.5;entryY=0;entryDx=0;entryDy=0;exitX=0.25;exitY=1;exitDx=0;exitDy=0;edgeStyle=orthogonalEdgeStyle;" parent="ABHz71erlMAeGAPcpA3J-29" source="ABHz71erlMAeGAPcpA3J-21" target="ABHz71erlMAeGAPcpA3J-18" edge="1">
          <mxGeometry width="50" height="50" relative="1" as="geometry">
            <mxPoint x="218" y="110" as="sourcePoint" />
            <mxPoint x="218.03999999999996" y="161.98000000000002" as="targetPoint" />
          </mxGeometry>
        </mxCell>
        <mxCell id="ABHz71erlMAeGAPcpA3J-25" value="" style="shape=flexArrow;endArrow=classic;html=1;rounded=1;fontSize=18;strokeWidth=2;entryX=0;entryY=0.5;entryDx=0;entryDy=0;exitX=1;exitY=0.5;exitDx=0;exitDy=0;" parent="ABHz71erlMAeGAPcpA3J-29" source="ABHz71erlMAeGAPcpA3J-19" target="ABHz71erlMAeGAPcpA3J-20" edge="1">
          <mxGeometry width="50" height="50" relative="1" as="geometry">
            <mxPoint x="130" y="350" as="sourcePoint" />
            <mxPoint x="180" y="300" as="targetPoint" />
          </mxGeometry>
        </mxCell>
        <mxCell id="ABHz71erlMAeGAPcpA3J-26" value="One channel input block" style="text;html=1;strokeColor=none;fillColor=none;align=center;verticalAlign=middle;whiteSpace=wrap;rounded=0;fontSize=18;" parent="ABHz71erlMAeGAPcpA3J-29" vertex="1">
          <mxGeometry y="10" width="240" height="20" as="geometry" />
        </mxCell>
        <mxCell id="ABHz71erlMAeGAPcpA3J-30" value="" style="group" parent="1" vertex="1" connectable="0">
          <mxGeometry x="430" y="-60" width="440" height="250" as="geometry" />
        </mxCell>
        <mxCell id="ABHz71erlMAeGAPcpA3J-10" value="" style="rounded=0;whiteSpace=wrap;html=1;fontSize=18;strokeWidth=2;fillColor=#f5f5f5;fontColor=#333333;strokeColor=#666666;" parent="ABHz71erlMAeGAPcpA3J-30" vertex="1">
          <mxGeometry width="400" height="250" as="geometry" />
        </mxCell>
        <mxCell id="ABHz71erlMAeGAPcpA3J-2" value="&lt;div&gt;Sample&lt;/div&gt;&lt;div&gt;time&lt;br&gt;&lt;/div&gt;" style="rounded=0;whiteSpace=wrap;html=1;fontSize=18;strokeWidth=2;" parent="ABHz71erlMAeGAPcpA3J-30" vertex="1">
          <mxGeometry x="35" y="150" width="120" height="60" as="geometry" />
        </mxCell>
        <mxCell id="ABHz71erlMAeGAPcpA3J-3" value="&lt;div&gt;Sample&lt;/div&gt;&lt;div&gt;value&lt;br&gt;&lt;/div&gt;" style="rounded=0;whiteSpace=wrap;html=1;fontSize=18;strokeWidth=2;" parent="ABHz71erlMAeGAPcpA3J-30" vertex="1">
          <mxGeometry x="155" y="150" width="120" height="60" as="geometry" />
        </mxCell>
        <mxCell id="ABHz71erlMAeGAPcpA3J-4" value="FIFO" style="whiteSpace=wrap;html=1;aspect=fixed;fontSize=18;strokeWidth=2;" parent="ABHz71erlMAeGAPcpA3J-30" vertex="1">
          <mxGeometry x="360" y="140" width="80" height="80" as="geometry" />
        </mxCell>
        <mxCell id="ABHz71erlMAeGAPcpA3J-5" value="Input RX" style="rounded=0;whiteSpace=wrap;html=1;fontSize=18;strokeWidth=2;" parent="ABHz71erlMAeGAPcpA3J-30" vertex="1">
          <mxGeometry x="155" y="40" width="120" height="60" as="geometry" />
        </mxCell>
        <mxCell id="ABHz71erlMAeGAPcpA3J-6" value="" style="endArrow=classic;html=1;rounded=0;fontSize=18;strokeWidth=2;entryX=0.442;entryY=0.033;entryDx=0;entryDy=0;entryPerimeter=0;" parent="ABHz71erlMAeGAPcpA3J-30" target="ABHz71erlMAeGAPcpA3J-3" edge="1">
          <mxGeometry width="50" height="50" relative="1" as="geometry">
            <mxPoint x="208" y="100" as="sourcePoint" />
            <mxPoint x="180" y="300" as="targetPoint" />
          </mxGeometry>
        </mxCell>
        <mxCell id="ABHz71erlMAeGAPcpA3J-7" value="" style="endArrow=classic;html=1;rounded=1;fontSize=18;strokeWidth=2;entryX=0.5;entryY=0;entryDx=0;entryDy=0;exitX=0.25;exitY=1;exitDx=0;exitDy=0;edgeStyle=orthogonalEdgeStyle;" parent="ABHz71erlMAeGAPcpA3J-30" source="ABHz71erlMAeGAPcpA3J-5" target="ABHz71erlMAeGAPcpA3J-2" edge="1">
          <mxGeometry width="50" height="50" relative="1" as="geometry">
            <mxPoint x="218" y="110" as="sourcePoint" />
            <mxPoint x="218.03999999999996" y="161.98000000000002" as="targetPoint" />
          </mxGeometry>
        </mxCell>
        <mxCell id="ABHz71erlMAeGAPcpA3J-9" value="" style="shape=flexArrow;endArrow=classic;html=1;rounded=1;fontSize=18;strokeWidth=2;entryX=0;entryY=0.5;entryDx=0;entryDy=0;exitX=1;exitY=0.5;exitDx=0;exitDy=0;" parent="ABHz71erlMAeGAPcpA3J-30" source="ABHz71erlMAeGAPcpA3J-3" target="ABHz71erlMAeGAPcpA3J-4" edge="1">
          <mxGeometry width="50" height="50" relative="1" as="geometry">
            <mxPoint x="130" y="350" as="sourcePoint" />
            <mxPoint x="180" y="300" as="targetPoint" />
          </mxGeometry>
        </mxCell>
        <mxCell id="ABHz71erlMAeGAPcpA3J-12" value="One channel input block" style="text;html=1;strokeColor=none;fillColor=none;align=center;verticalAlign=middle;whiteSpace=wrap;rounded=0;fontSize=18;" parent="ABHz71erlMAeGAPcpA3J-30" vertex="1">
          <mxGeometry y="10" width="240" height="20" as="geometry" />
        </mxCell>
        <mxCell id="ABHz71erlMAeGAPcpA3J-1" value="&lt;font style=&quot;font-size: 18px&quot;&gt;HR Time Counter&lt;/font&gt;" style="rounded=0;whiteSpace=wrap;html=1;strokeWidth=2;" parent="1" vertex="1">
          <mxGeometry x="180" y="120" width="150" height="70" as="geometry" />
        </mxCell>
        <mxCell id="ABHz71erlMAeGAPcpA3J-8" value="" style="endArrow=classic;html=1;rounded=1;fontSize=18;strokeWidth=2;exitX=1;exitY=0.5;exitDx=0;exitDy=0;edgeStyle=elbowEdgeStyle;" parent="1" source="ABHz71erlMAeGAPcpA3J-1" edge="1">
          <mxGeometry width="50" height="50" relative="1" as="geometry">
            <mxPoint x="440" y="190" as="sourcePoint" />
            <mxPoint x="460" y="120" as="targetPoint" />
          </mxGeometry>
        </mxCell>
        <mxCell id="ABHz71erlMAeGAPcpA3J-13" value="" style="endArrow=classic;html=1;rounded=1;fontSize=18;strokeWidth=2;entryX=0;entryY=0.5;entryDx=0;entryDy=0;exitX=1;exitY=0.5;exitDx=0;exitDy=0;" parent="1" source="ABHz71erlMAeGAPcpA3J-14" target="ABHz71erlMAeGAPcpA3J-5" edge="1">
          <mxGeometry width="50" height="50" relative="1" as="geometry">
            <mxPoint x="360" y="10" as="sourcePoint" />
            <mxPoint x="610" y="240" as="targetPoint" />
          </mxGeometry>
        </mxCell>
        <mxCell id="ABHz71erlMAeGAPcpA3J-14" value="SPDIF input" style="text;html=1;strokeColor=none;fillColor=none;align=center;verticalAlign=middle;whiteSpace=wrap;rounded=0;fontSize=18;" parent="1" vertex="1">
          <mxGeometry x="250" y="-5" width="60" height="30" as="geometry" />
        </mxCell>
        <mxCell id="ABHz71erlMAeGAPcpA3J-24" value="" style="endArrow=classic;html=1;rounded=1;fontSize=18;strokeWidth=2;exitX=1;exitY=0.5;exitDx=0;exitDy=0;edgeStyle=elbowEdgeStyle;" parent="1" source="ABHz71erlMAeGAPcpA3J-1" edge="1">
          <mxGeometry width="50" height="50" relative="1" as="geometry">
            <mxPoint x="330" y="445" as="sourcePoint" />
            <mxPoint x="460" y="410" as="targetPoint" />
          </mxGeometry>
        </mxCell>
        <mxCell id="ABHz71erlMAeGAPcpA3J-27" value="" style="endArrow=classic;html=1;rounded=1;fontSize=18;strokeWidth=2;entryX=0;entryY=0.5;entryDx=0;entryDy=0;exitX=1;exitY=0.5;exitDx=0;exitDy=0;" parent="1" source="ABHz71erlMAeGAPcpA3J-28" target="ABHz71erlMAeGAPcpA3J-21" edge="1">
          <mxGeometry width="50" height="50" relative="1" as="geometry">
            <mxPoint x="360" y="300" as="sourcePoint" />
            <mxPoint x="610" y="530" as="targetPoint" />
          </mxGeometry>
        </mxCell>
        <mxCell id="ABHz71erlMAeGAPcpA3J-28" value="SPDIF input" style="text;html=1;strokeColor=none;fillColor=none;align=center;verticalAlign=middle;whiteSpace=wrap;rounded=0;fontSize=18;" parent="1" vertex="1">
          <mxGeometry x="230" y="295" width="60" height="30" as="geometry" />
        </mxCell>
        <mxCell id="ABHz71erlMAeGAPcpA3J-31" value="[...]" style="text;html=1;strokeColor=none;fillColor=none;align=center;verticalAlign=middle;whiteSpace=wrap;rounded=0;fontSize=18;" parent="1" vertex="1">
          <mxGeometry x="590" y="200" width="60" height="30" as="geometry" />
        </mxCell>
      </root>
    </mxGraphModel>
  </diagram>
</mxfile>
